{
    "add_repo": {
        "intro": "Для добавления репозиториев, сканируйте их QR-коды с сайтов или устройств, на которых они уже добавлены.",
        "no_internet": "Нет интернета? Не проблема: <a href=\"../swap/\">Как передать и получить приложения без сети</a>",
        "open_repo_link": {
            "description": "При получении ссылки через E-mail, социальные сети или SMS, откройте её и получите возможность устанавливать приложения в F-Droid из неё.",
            "short_summary": "Открытие ссылки на репозиторий",
            "steps": {
                "step_1": "Загрузите и установите приложение F-Droid на своё устройство с Android.",
                "step_2": "Нажмите на ссылку и откройте её в веб-браузере на своём устройстве.",
                "step_3": "Перейдя по ссылке, нажмите кнопку \"Добавить в F-Droid\".",
                "step_4": "Нажмите кнопку \"У меня есть F-Droid\". Откроется приложение F-Droid.",
                "step_5": "Откроется диалоговое окно \"Добавить новый репозиторий\" с уже внесенным адресом репозитория. Чтобы добавить его, нажмите кнопку \"OK\".",
                "step_6": "Будет добавлен новый репозиторий. Чтобы увидеть список своих репозиториев, откройте \"Настройки\". Выберите \"Репозитории\".",
                "step_7": "Чтобы увидеть содержание репозитория, нажмите на его название.",
                "step_8": "Выберите желаемые приложения и установите их себе на устройство."
            },
            "title": "Открытие ссылки на репозиторий со своего устройства"
        },
        "overview": {
            "summary": "Чтобы получить больше, добавьте репозитории в F-Droid. Репозиторий — курируемый набор содержимого. Узнать о репозиториях отдельных людей можно непосредственно от них самих. Разработчики часто размещают ссылки на свои репозитории F-Droid на своих сайтах. Преподаватели обычно делятся ссылками на репозитории через E-mail, Facebook или Twitter.",
            "title": "Получить больше."
        },
        "scan_qr_code": {
            "description": "Для добавления репозиториев, сканируйте их QR-коды с сайтов или устройств, на которых они уже добавлены.",
            "related_tutorial": "Вас также может заинтересовать: <a href=\"../swap/\">Как передать и получить приложения без сети</a>",
            "short_summary": "Сканирование кода QR",
            "steps": {
                "step_1": "При появлении кода QR для репозитория, сосканируйте его приложением со сканером QR.",
                "step_2": "Нажмите ссылку. При появлении вариантов, откройте ссылку при помощи F-Droid. Затем подтвердите намерения. Если сработало, на этом всё! Если нет, переходите к следующему шагу.",
                "step_3": "Если Вам не предложен вариант открытия ссылки в F-Droid, закройте приложение-сканер QR и откройте клиент F-Droid.",
                "step_4": "В F-Droid нажмите \"Настройки\". В \"Мои приложения\" выберите \"Репозитории\".",
                "step_5": "На экране \"Репозитории\" нажмите значок \"+\" в верхнем углу.",
                "step_6": "Адрес репозитория заполнится сам. Нажмите \"Включить\".\nПримечание: Этот репозиторий будет сохранён в \"Репозитории\" F-Droid, но никакие его приложения не будут установлены, пока Вы не отметите их для установки самостоятельно."
            },
            "title": "Сканирование QR-кода с другого устройства"
        },
        "title": "Как добавить репозитории в F-Droid"
    },
    "create_repo": {
        "customize_repo": {
            "description": "Вы можете редактировать приложение и сводки файлов, чтобы сделать его понятным для вашей целевой аудитории.  Вы можете редактировать язык в зависимости от страны.  Затем без труда делитесь репо с участниками до проведения конференций и тренингов.",
            "steps": {
                "step_1": "Нажмите на объект, чтобы открыть его детали.",
                "step_2": "Нажмите «Изменить».",
                "step_3": "Настройте контент в соответствии с вашей целевой аудиторией.  Примечание: внесенные вами изменения будут внесены только в ваш репо.  Они не будут обновляться для исходного источника.  Пожалуйста, будьте внимательны при настройке информации для контента, который не принадлежит вам.",
                "step_4": "Все ваши изменения сохраняются автоматически."
            },
            "title": "Настройте свой репозиторий"
        },
        "download_and_install": {
            "steps": {
                "step_1": "Загрузите и установите веб-приложение Repomaker на свой настольный компьютер. За более подробной инструкцией по установке обратитесь к <a href=\"https://gitlab.com/fdroid/repomaker/blob/master/README.md#installation\">руководству по установке</a>.",
                "step_2": "Запустите веб-приложение Repomaker. Зарегистрируйтесь или войдите, чтобы начать.",
                "step_3": "Создайте новый репозиторий и назовите его.",
                "step_4": "Выберите добавление приложений из галереи и доступных репозиториев или загрузите свои собственные файлы.  Нажмите кнопку «Добавить из галереи», чтобы выбрать доступный контент.",
                "step_5": "Нажмите кнопку «Добавить» рядом с элементами, которые хотите добавить. Когда закончите, нажмите стрелку «назад», чтобы вернуться в репозиторий.",
                "step_6": "Ваши приложения будут отображаться в вашем представлении репозитория."
            },
            "title": "Загрузите и установите Repomaker, чтобы начать создавать"
        },
        "intro": "Не нашли то, что искали? Загрузите на свой компьютер веб-приложение Repomaker и создайте собственную коллекцию приложений и файлов.",
        "overview": {
            "summary": "Создайте собственный репозиторий приложений и воспользуйтесь F-Droid для распространения его контента. Преподаватели могут с лёгкостью поделиться подборкой материалов и приложений с учениками, когда нет надёжного соединения с интернетом. Разработчики через репозитории распространяют свои приложения узкому кругу заинтересованных.",
            "title": "Добавить свои собственные приложения и файлы."
        },
        "related_tutorial": "Возможно Вас заинтересует: <a href='../add-repo/'>Как добавить репозиторий в F-Droid</a>",
        "share_repo": {
            "steps": {
                "step_1": "Открыв репо, которым вы хотите поделиться, нажмите «Поделиться» в меню.  Примечание: вам нужно настроить место для хранения вашего репо, прежде чем делиться.  Инструкции о том, как это сделать, находятся на шаге 2.",
                "step_2": "Вам будет предложено настроить хранилище для публикации вашего репозитория и перед публикацией.  Если вы не видите эту страницу, перейдите к шагу 4.",
                "step_3": "Выберите вариант хранения, который наилучшим образом соответствует вашим потребностям.  Когда у вас есть хранилище, вы готовы поделиться!  Вернуться к «Поделиться».",
                "step_4": "Выберите, чтобы скопировать ссылку и отправить ее непосредственно людям по электронной почте или тексту, или поделиться своим репо в Facebook или Twitter.  Когда люди открывают ссылку на ваш репо, им нужно будет добавить ее на устройство Android, чтобы получить доступ к приложениям в репо.  См. <a href='../add-repo/'> Как добавить репо в F-Droid </a> для получения дополнительной информации.",
                "step_5": "Опция «Просмотр репо» позволяет вам увидеть, что вы только что опубликовали или опубликовали."
            },
            "title": "Настройте свой репо"
        },
        "title": "Как создать репозиторий",
        "update_repo": {
            "steps": {
                "step_1": "Если вы добавляете приложения из галереи, они автоматически обновляются, когда источник добавляет новые версии.  Для файлов, которые вы загрузили, вы можете перетаскивать обновленные версии в представлении хранилища.",
                "step_2": "Кроме того, вы можете открыть один элемент, чтобы добавить новую версию.  Выберите изменить.",
                "step_3": "Прокрутите вниз до версии.  Затем добавьте новую версию в разделе «История версий».",
                "step_4": "Затем добавьте новую версию в разделе «История версий»."
            },
            "title": "Обновите свой репо"
        }
    },
    "misc": {
        "option_x_description": "Вариант [number]: [description]",
        "overview": {
            "summary": "F-Droid — независимый, разрабатываемый сообществом магазин приложений для Android со свободным и открытым исходным кодом. При помощи F-Droid можно просматривать более 1200 приложений с открытым исходным кодом, искать и устанавливать приложения из имеющихся репозиториев или же создать собственный репозиторий. Чтобы начать, откройте f-droid.org на своём устройстве с Android и загрузите приложение!",
            "title": "Что можно сделать при помощи F-Droid",
            "tutorial_x_title": "Руководство [number]: [title]"
        },
        "step_x": "Шаг [number]",
        "step_x_description": "Шаг [number]: [description]"
    },
    "swap": {
        "all_devices_need_fdroid": "Перед началом на всех устройствах должен быть установлен F-Droid. На всех устройствах следует проделать следующие шаги.",
        "intro": "Нет интнернета? Не проблема. Скачивайте приложения у людей неподалёку.",
        "overview": {
            "summary": "Нет интернета? Не проблема. F-Droid Соседи позволяет Вам отправлять и принимать данные от людей в той же комнате.",
            "title": "Передача и получение приложений без сети."
        },
        "related_tutorial": "Возможно Вас заинтересует: <a href=\"../create-repo/\">Как создать свой репозиторий</a>",
        "step_1": "запустите F-Droid. Коснитесь \"Соседи\" в меню в нижней части экрана.",
        "step_10": "Чтобы получить доступ к установленным приложениям, откройте настройки F-Droid и выберите «Управление установленными приложениями» в разделе «Мои приложения».",
        "step_2": "Коснитесь \"Найти людей вблизи\" для поиска совместимых устройств.",
        "step_3": "Как только будут найдены люди по-соседству, вам обоим следует выбрать друг друга.",
        "step_4": "После соединения выберите те приложения, которыми вы хотите поделиться с соседом.",
        "step_5": "Коснитесь кнопки \"—>\".",
        "step_6": "Одному из вас будет направлен запрос на соединение.",
        "step_7": "Коснитесь кнопки \"Установить\" напротив тех приложений, которые Вы хотите установить.",
        "step_8": "Коснитесь \"Установить\" ещё раз. Отвечая на запросы Android завершите процесс установки.",
        "step_9": "По окончании установок, эти приложения появятся в списках установленных приложений Android и Вашего F-Droid.",
        "title": "Как отправлять или принимать приложения без сети"
    }
}
